<?xml version="1.0" encoding="utf-8"?>
<!-- Generator: Adobe Illustrator 23.0.3, SVG Export Plug-In . SVG Version: 6.00 Build 0)  -->
<svg version="1.1" id="Layer_1" xmlns="http://www.w3.org/2000/svg" xmlns:xlink="http://www.w3.org/1999/xlink" x="0px" y="0px"
	 viewBox="0 0 2560 327" style="enable-background:new 0 0 2560 327;" xml:space="preserve">
<style type="text/css">
	.st0{opacity:5.000000e-02;fill-rule:evenodd;clip-rule:evenodd;fill:#775DFF;enable-background:new    ;}
	.st1{fill-rule:evenodd;clip-rule:evenodd;fill:#F4976C;}
</style>
<path class="st0" d="M0,0h107c106,0,320,0,533,21.6C853,44,1067,88,1280,88s427-44,640-55.2s427,11.2,533,22.4l107,11.2V265h-107
	c-106,0-320,0-533,0s-427,0-640,0s-427,0-640,0s-427,0-533,0H0V0z"/>
<path class="st1" d="M2560,25.6l-142,25.5c-142,24.8-427,75.2-711,58.2C1422,92.9,1138,9.2,853,0.7C569-7.8,284,58.9,142,92.9
	L0,126.3V327h142c142,0,427,0,711,0c285,0,569,0,854,0c284,0,569,0,711,0h142V25.6z"/>
</svg>
